{
  "project_info": {
    "project_number": "114080552244",
    "firebase_url": "https://webwhatsapp-d0550.firebaseio.com",
    "project_id": "webwhatsapp-d0550",
    "storage_bucket": "webwhatsapp-d0550.appspot.com"
  },
  "client": [
    {
      "client_info": {
        "mobilesdk_app_id": "1:114080552244:android:6e91f44605f47144638161",
        "android_client_info": {
          "package_name": "com.zero1tech.whatsappweb"
        }
      },
      "oauth_client": [
        {
          "client_id": "114080552244-la3jdpl3unmi3qev2jmh6atbcb3urjdd.apps.googleusercontent.com",
          "client_type": 3
        }
      ],
      "api_key": [
        {
          "current_key": "AIzaSyDcrPlPZUHnNgLNYOHPSakCa6SLB58kA14"
        }
      ],
      "services": {
        "appinvite_service": {
          "other_platform_oauth_client": [
            {
              "client_id": "114080552244-la3jdpl3unmi3qev2jmh6atbcb3urjdd.apps.googleusercontent.com",
              "client_type": 3
            }
          ]
        }
      },
      "admob_app_id": "ca-app-pub-6395927735344355~2478231901"
    },
    {
      "client_info": {
        "mobilesdk_app_id": "1:114080552244:android:b952dd3879f04735638161",
        "android_client_info": {
          "package_name": "com.zero1tech.whatsappweb.debug"
        }
      },
      "oauth_client": [
        {
          "client_id": "114080552244-la3jdpl3unmi3qev2jmh6atbcb3urjdd.apps.googleusercontent.com",
          "client_type": 3
        }
      ],
      "api_key": [
        {
          "current_key": "AIzaSyDcrPlPZUHnNgLNYOHPSakCa6SLB58kA14"
        }
      ],
      "services": {
        "appinvite_service": {
          "other_platform_oauth_client": [
            {
              "client_id": "114080552244-la3jdpl3unmi3qev2jmh6atbcb3urjdd.apps.googleusercontent.com",
              "client_type": 3
            }
          ]
        }
      }
    },
    {
      "client_info": {
        "mobilesdk_app_id": "1:114080552244:android:54198c21e80a0ea5638161",
        "android_client_info": {
          "package_name": "com.zero1tech.whatsappweb.versionA"
        }
      },
      "oauth_client": [
        {
          "client_id": "114080552244-la3jdpl3unmi3qev2jmh6atbcb3urjdd.apps.googleusercontent.com",
          "client_type": 3
        }
      ],
      "api_key": [
        {
          "current_key": "AIzaSyDcrPlPZUHnNgLNYOHPSakCa6SLB58kA14"
        }
      ],
      "services": {
        "appinvite_service": {
          "other_platform_oauth_client": [
            {
              "client_id": "114080552244-la3jdpl3unmi3qev2jmh6atbcb3urjdd.apps.googleusercontent.com",
              "client_type": 3
            }
          ]
        }
      }
    },
    {
      "client_info": {
        "mobilesdk_app_id": "1:114080552244:android:a72f1b10a62804ff638161",
        "android_client_info": {
          "package_name": "com.zero1tech.whatsappweb.versionB"
        }
      },
      "oauth_client": [
        {
          "client_id": "114080552244-la3jdpl3unmi3qev2jmh6atbcb3urjdd.apps.googleusercontent.com",
          "client_type": 3
        }
      ],
      "api_key": [
        {
          "current_key": "AIzaSyDcrPlPZUHnNgLNYOHPSakCa6SLB58kA14"
        }
      ],
      "services": {
        "appinvite_service": {
          "other_platform_oauth_client": [
            {
              "client_id": "114080552244-la3jdpl3unmi3qev2jmh6atbcb3urjdd.apps.googleusercontent.com",
              "client_type": 3
            }
          ]
        }
      }
    },
    {
      "client_info": {
        "mobilesdk_app_id": "1:114080552244:android:b9f2d7b3cf2eb41a638161",
        "android_client_info": {
          "package_name": "com.zero1tech.whatsappweb.versionC"
        }
      },
      "oauth_client": [
        {
          "client_id": "114080552244-la3jdpl3unmi3qev2jmh6atbcb3urjdd.apps.googleusercontent.com",
          "client_type": 3
        }
      ],
      "api_key": [
        {
          "current_key": "AIzaSyDcrPlPZUHnNgLNYOHPSakCa6SLB58kA14"
        }
      ],
      "services": {
        "appinvite_service": {
          "other_platform_oauth_client": [
            {
              "client_id": "114080552244-la3jdpl3unmi3qev2jmh6atbcb3urjdd.apps.googleusercontent.com",
              "client_type": 3
            }
          ]
        }
      }
    }
  ],
  "configuration_version": "1"
}